…
The data has been imported in to an object df which is a data frame (technically a tibble which is readr’s slightly modified version of a data frame, but let’s not get bogged down in details just yet). This data frame showed up in the Environment panel and if you click on the small spreadsheet icon you can see the data in a visual format.

There are other ways to view and get to know our data.

Instead of clicking on that icon, you can also type in the console:

View(df)

capital “V” is important

We can also simply type the name of the data frame:

df

## # A tibble: 44 x 15
##    station     dttm                      lon   lat  temp   sal fluor moon_phase
##    <chr>       <dttm>                  <dbl> <dbl> <dbl> <dbl> <dbl>      <dbl>
##  1 C282-001-NT 2018-10-15 12:23:00.000 -71.2  41.3  18.2  31.8 2821.      0.38 
##  2 C282-002-NT 2018-10-16 23:50:00.000 -70.6  40.5  16.8  32.9 2737       0.570
##  3 C282-003-NT 2018-10-17 12:16:00.000 -70.0  39.9  20.3  34.9  878.      0.570
##  4 C282-005-NT 2018-10-19 11:16:00.000 -68.7  38.2  21.8  34.9 1554.      0.75 
##  5 C282-006-NT 2018-10-19 23:50:00.000 -67.8  36.9  26.1  36.4  529.      0.83 
##  6 C282-007-NT 2018-10-20 11:24:00.000 -67.1  36.3  25.8  36.4  465.      0.83 
##  7 C282-008-NT 2018-10-22 23:21:00.000 -61.8  36.1  25.2  36.5  521.      0.95 
##  8 C282-009-NT 2018-10-23 12:13:00.000 -61.1  35.5  24.3  36.5  413.      0.98 
##  9 C282-010-NT 2018-10-23 23:34:00.000 -61.0  35.0  25.2  36.8  411.      0.98 
## 10 C282-011-NT 2018-10-24 11:27:00.000 -60.5  34.7  25.2  36.8  404.      1    
## # … with 34 more rows, and 7 more variables: moon_mode <chr>, tow_dist <dbl>,
## #   biomass <dbl>, nekt_total_num <dbl>, nekt_total_vol <dbl>, daynight <chr>,
## #   biodens <dbl>
…
