…
T = date time

t = time

? = guess

_ or - = skip

So in this data case,

df <- read_csv("data/chla_example.csv", col_types = "Tddd")
df

## # A tibble: 2,594,161 x 4
##    time                    latitude longitude chlorophyll
##    <dttm>                     <dbl>     <dbl>       <dbl>
##  1 NA                          NA         NA        NA   
##  2 2021-09-10 00:00:00.000     50.0     -180.        1.16
##  3 2021-09-10 00:00:00.000     50.0     -180.        1.19
##  4 2021-09-10 00:00:00.000     50.0     -180.        1.24
##  5 2021-09-10 00:00:00.000     50.0     -180.        1.24
##  6 2021-09-10 00:00:00.000     50.0     -180.        1.05
##  7 2021-09-10 00:00:00.000     50.0     -180.        1.05
##  8 2021-09-10 00:00:00.000     50.0     -180.        1.09
##  9 2021-09-10 00:00:00.000     50.0     -180.        1.11
## 10 2021-09-10 00:00:00.000     50.0     -180.      NaN   
## # … with 2,594,151 more rows

The first row of “data” is now all NA because R couldn’t force these units to be the thing we asked them to be. So all we need to do now is remove this row from the data which you can do a number of ways, but here is one example:

df <- df[2:nrow(df), ]
df

## # A tibble: 2,594,160 x 4
##    time                    latitude longitude chlorophyll
##    <dttm>                     <dbl>     <dbl>       <dbl>
##  1 2021-09-10 00:00:00.000     50.0     -180.       1.16 
##  2 2021-09-10 00:00:00.000     50.0     -180.       1.19 
##  3 2021-09-10 00:00:00.000     50.0     -180.       1.24 
##  4 2021-09-10 00:00:00.000     50.0     -180.       1.24 
##  5 2021-09-10 00:00:00.000     50.0     -180.       1.05 
##  6 2021-09-10 00:00:00.000     50.0     -180.       1.05 
##  7 2021-09-10 00:00:00.000     50.0     -180.       1.09 
##  8 2021-09-10 00:00:00.000     50.0     -180.       1.11 
##  9 2021-09-10 00:00:00.000     50.0     -180.     NaN    
## 10 2021-09-10 00:00:00.000     50.0     -180.       0.998
## # … with 2,594,150 more rows
…
